module bitbucket.org/boolow5/Inventory/api

go 1.12

require (
	github.com/gin-contrib/sse v0.0.0-20190301062529-5545eab6dad3 // indirect
	github.com/gin-gonic/gin v1.3.0
	github.com/golang/protobuf v1.3.1 // indirect
	github.com/jordan-wright/email v0.0.0-20190218024454-3ea4d25e7cf8
	github.com/json-iterator/go v1.1.6 // indirect
	github.com/mailgun/mailgun-go/v3 v3.4.0
	github.com/mattn/go-isatty v0.0.7 // indirect
	github.com/modern-go/concurrent v0.0.0-20180306012644-bacd9c7ef1dd // indirect
	github.com/modern-go/reflect2 v1.0.1 // indirect
	github.com/sirupsen/logrus v1.4.1
	github.com/ugorji/go v1.1.4 // indirect
	golang.org/x/crypto v0.0.0-20190426145343-a29dc8fdc734
	gopkg.in/dgrijalva/jwt-go.v2 v2.7.0
	gopkg.in/go-playground/validator.v8 v8.18.2 // indirect
	gopkg.in/mgo.v2 v2.0.0-20180705113604-9856a29383ce
	gopkg.in/yaml.v2 v2.2.2 // indirect
)
